^C:\USERS\DNIPPER\DOCUMENTS\C++\VECTORDANIELNIPPER\GAMESOLUTION\GAME\ASTEROID.CPP
/c /IC:\Users\dnipper\Documents\c++\vectordanielnipper\GameSolution\\Engine /IC:\Users\dnipper\Documents\c++\vectordanielnipper\GameSolution\\Core\include /ZI /nologo /W4 /WX- /Od /Oy- /D ASSERT_ON /D LOG_ON /D PROFILING_ON /D WIN32 /D _DEBUG /D _WINDOWS /D _UNICODE /D UNICODE /Gm /EHsc /RTC1 /MDd /GS /fp:precise /Zc:wchar_t /Zc:forScope /Fo"DEBUG\\" /Fd"DEBUG\VC110.PDB" /Gd /TP /analyze- C:\USERS\DNIPPER\DOCUMENTS\C++\VECTORDANIELNIPPER\GAMESOLUTION\GAME\ASTEROID.CPP
^C:\USERS\DNIPPER\DOCUMENTS\C++\VECTORDANIELNIPPER\GAMESOLUTION\GAME\BULLET.CPP
/c /IC:\Users\dnipper\Documents\c++\vectordanielnipper\GameSolution\\Engine /IC:\Users\dnipper\Documents\c++\vectordanielnipper\GameSolution\\Core\include /ZI /nologo /W4 /WX- /Od /Oy- /D ASSERT_ON /D LOG_ON /D PROFILING_ON /D WIN32 /D _DEBUG /D _WINDOWS /D _UNICODE /D UNICODE /Gm /EHsc /RTC1 /MDd /GS /fp:precise /Zc:wchar_t /Zc:forScope /Fo"DEBUG\\" /Fd"DEBUG\VC110.PDB" /Gd /TP /analyze- C:\USERS\DNIPPER\DOCUMENTS\C++\VECTORDANIELNIPPER\GAMESOLUTION\GAME\BULLET.CPP
^C:\USERS\DNIPPER\DOCUMENTS\C++\VECTORDANIELNIPPER\GAMESOLUTION\GAME\ENEMY.CPP
/c /IC:\Users\dnipper\Documents\c++\vectordanielnipper\GameSolution\\Engine /IC:\Users\dnipper\Documents\c++\vectordanielnipper\GameSolution\\Core\include /ZI /nologo /W4 /WX- /Od /Oy- /D ASSERT_ON /D LOG_ON /D PROFILING_ON /D WIN32 /D _DEBUG /D _WINDOWS /D _UNICODE /D UNICODE /Gm /EHsc /RTC1 /MDd /GS /fp:precise /Zc:wchar_t /Zc:forScope /Fo"DEBUG\\" /Fd"DEBUG\VC110.PDB" /Gd /TP /analyze- C:\USERS\DNIPPER\DOCUMENTS\C++\VECTORDANIELNIPPER\GAMESOLUTION\GAME\ENEMY.CPP
^C:\USERS\DNIPPER\DOCUMENTS\C++\VECTORDANIELNIPPER\GAMESOLUTION\GAME\GAME.CPP
/c /IC:\Users\dnipper\Documents\c++\vectordanielnipper\GameSolution\\Engine /IC:\Users\dnipper\Documents\c++\vectordanielnipper\GameSolution\\Core\include /ZI /nologo /W4 /WX- /Od /Oy- /D ASSERT_ON /D LOG_ON /D PROFILING_ON /D WIN32 /D _DEBUG /D _WINDOWS /D _UNICODE /D UNICODE /Gm /EHsc /RTC1 /MDd /GS /fp:precise /Zc:wchar_t /Zc:forScope /Fo"DEBUG\\" /Fd"DEBUG\VC110.PDB" /Gd /TP /analyze- C:\USERS\DNIPPER\DOCUMENTS\C++\VECTORDANIELNIPPER\GAMESOLUTION\GAME\GAME.CPP
^C:\USERS\DNIPPER\DOCUMENTS\C++\VECTORDANIELNIPPER\GAMESOLUTION\GAME\GAMEOBJECT.CPP
/c /IC:\Users\dnipper\Documents\c++\vectordanielnipper\GameSolution\\Engine /IC:\Users\dnipper\Documents\c++\vectordanielnipper\GameSolution\\Core\include /ZI /nologo /W4 /WX- /Od /Oy- /D ASSERT_ON /D LOG_ON /D PROFILING_ON /D WIN32 /D _DEBUG /D _WINDOWS /D _UNICODE /D UNICODE /Gm /EHsc /RTC1 /MDd /GS /fp:precise /Zc:wchar_t /Zc:forScope /Fo"DEBUG\\" /Fd"DEBUG\VC110.PDB" /Gd /TP /analyze- C:\USERS\DNIPPER\DOCUMENTS\C++\VECTORDANIELNIPPER\GAMESOLUTION\GAME\GAMEOBJECT.CPP
^C:\USERS\DNIPPER\DOCUMENTS\C++\VECTORDANIELNIPPER\GAMESOLUTION\GAME\MAIN.CPP
/c /IC:\Users\dnipper\Documents\c++\vectordanielnipper\GameSolution\\Engine /IC:\Users\dnipper\Documents\c++\vectordanielnipper\GameSolution\\Core\include /ZI /nologo /W4 /WX- /Od /Oy- /D ASSERT_ON /D LOG_ON /D PROFILING_ON /D WIN32 /D _DEBUG /D _WINDOWS /D _UNICODE /D UNICODE /Gm /EHsc /RTC1 /MDd /GS /fp:precise /Zc:wchar_t /Zc:forScope /Fo"DEBUG\\" /Fd"DEBUG\VC110.PDB" /Gd /TP /analyze- C:\USERS\DNIPPER\DOCUMENTS\C++\VECTORDANIELNIPPER\GAMESOLUTION\GAME\MAIN.CPP
^C:\USERS\DNIPPER\DOCUMENTS\C++\VECTORDANIELNIPPER\GAMESOLUTION\GAME\PLANETS.CPP
/c /IC:\Users\dnipper\Documents\c++\vectordanielnipper\GameSolution\\Engine /IC:\Users\dnipper\Documents\c++\vectordanielnipper\GameSolution\\Core\include /ZI /nologo /W4 /WX- /Od /Oy- /D ASSERT_ON /D LOG_ON /D PROFILING_ON /D WIN32 /D _DEBUG /D _WINDOWS /D _UNICODE /D UNICODE /Gm /EHsc /RTC1 /MDd /GS /fp:precise /Zc:wchar_t /Zc:forScope /Fo"DEBUG\\" /Fd"DEBUG\VC110.PDB" /Gd /TP /analyze- C:\USERS\DNIPPER\DOCUMENTS\C++\VECTORDANIELNIPPER\GAMESOLUTION\GAME\PLANETS.CPP
^C:\USERS\DNIPPER\DOCUMENTS\C++\VECTORDANIELNIPPER\GAMESOLUTION\GAME\SHAPE.CPP
/c /IC:\Users\dnipper\Documents\c++\vectordanielnipper\GameSolution\\Engine /IC:\Users\dnipper\Documents\c++\vectordanielnipper\GameSolution\\Core\include /ZI /nologo /W4 /WX- /Od /Oy- /D ASSERT_ON /D LOG_ON /D PROFILING_ON /D WIN32 /D _DEBUG /D _WINDOWS /D _UNICODE /D UNICODE /Gm /EHsc /RTC1 /MDd /GS /fp:precise /Zc:wchar_t /Zc:forScope /Fo"DEBUG\\" /Fd"DEBUG\VC110.PDB" /Gd /TP /analyze- C:\USERS\DNIPPER\DOCUMENTS\C++\VECTORDANIELNIPPER\GAMESOLUTION\GAME\SHAPE.CPP
^C:\USERS\DNIPPER\DOCUMENTS\C++\VECTORDANIELNIPPER\GAMESOLUTION\GAME\SPACESHIP.CPP
/c /IC:\Users\dnipper\Documents\c++\vectordanielnipper\GameSolution\\Engine /IC:\Users\dnipper\Documents\c++\vectordanielnipper\GameSolution\\Core\include /ZI /nologo /W4 /WX- /Od /Oy- /D ASSERT_ON /D LOG_ON /D PROFILING_ON /D WIN32 /D _DEBUG /D _WINDOWS /D _UNICODE /D UNICODE /Gm /EHsc /RTC1 /MDd /GS /fp:precise /Zc:wchar_t /Zc:forScope /Fo"DEBUG\\" /Fd"DEBUG\VC110.PDB" /Gd /TP /analyze- C:\USERS\DNIPPER\DOCUMENTS\C++\VECTORDANIELNIPPER\GAMESOLUTION\GAME\SPACESHIP.CPP
^C:\USERS\DNIPPER\DOCUMENTS\C++\VECTORDANIELNIPPER\GAMESOLUTION\GAME\TURRET.CPP
/c /IC:\Users\dnipper\Documents\c++\vectordanielnipper\GameSolution\\Engine /IC:\Users\dnipper\Documents\c++\vectordanielnipper\GameSolution\\Core\include /ZI /nologo /W4 /WX- /Od /Oy- /D ASSERT_ON /D LOG_ON /D PROFILING_ON /D WIN32 /D _DEBUG /D _WINDOWS /D _UNICODE /D UNICODE /Gm /EHsc /RTC1 /MDd /GS /fp:precise /Zc:wchar_t /Zc:forScope /Fo"DEBUG\\" /Fd"DEBUG\VC110.PDB" /Gd /TP /analyze- C:\USERS\DNIPPER\DOCUMENTS\C++\VECTORDANIELNIPPER\GAMESOLUTION\GAME\TURRET.CPP
